<?xml version="1.0" encoding="utf-8"?>
<!-- Generator: Adobe Illustrator 23.0.1, SVG Export Plug-In . SVG Version: 6.00 Build 0)  -->
<svg version="1.1" id="Layer_1" xmlns="http://www.w3.org/2000/svg" xmlns:xlink="http://www.w3.org/1999/xlink" x="0px" y="0px"
	 viewBox="0 0 1455.6 240" style="enable-background:new 0 0 1455.6 240;" xml:space="preserve">
<style type="text/css">
	.st0{fill:#E3D3AF;}
</style>
<polygon class="st0" points="166.2,147.8 240,94 148.8,94 121,8 93.2,94 2,94 75.8,147.8 48,234 121,180.8 194,234 "/>
<polygon class="st0" points="466.8,147.8 540.6,94 449.4,94 421.6,8 393.8,94 302.6,94 376.4,147.8 348.6,234 421.6,180.8 
	494.6,234 "/>
<polygon class="st0" points="767.4,147.8 841.2,94 750,94 722.2,8 694.5,94 603.2,94 677.1,147.8 649.2,234 722.2,180.8 795.2,234 
	"/>
<polygon class="st0" points="1068,147.8 1141.9,94 1050.6,94 1022.9,8 995.1,94 903.9,94 977.7,147.8 949.9,234 1022.9,180.8 
	1095.9,234 "/>
<polygon class="st0" points="1368.6,147.8 1442.5,94 1351.2,94 1323.5,8 1295.7,94 1204.5,94 1278.3,147.8 1250.5,234 1323.5,180.8 
	1396.5,234 "/>
</svg>
